<html>
<title> - DECEPTIVE SWEEPSTAKES MAILINGS</title>
<body><pre>
[House Hearing, 106 Congress]
[From the U.S. Government Printing Office]




 
                   DECEPTIVE SWEEPSTAKES MAILINGS
=======================================================================

                                HEARING

                               before the

                 SUBCOMMITTEE ON POSTAL SERVICESS

                                 of the

                              COMMITTEE ON
                           GOVERNMENT REFORM

                        HOUSE OF REPRESENTATIVES

                       ONE HUNDRED SIXTH CONGRESS

                             FIRST SESSION

                               __________

                             AUGUST 4, 2000

                               __________

                           Serial No. 106-69

                               __________

       Printed for the use of the Committee on Government Reform


  Available via the World Wide Web:  http://www.house.gov/reform



                               __________

                    U.S. GOVERNMENT PRINTING OFFICE
67-152                      WASHINGTON : 2000



                                                                                                  [IMAGES NOT AVAILABLE]

</pre></body></html>
