<html>
<title> - DEPARTMENT OF VETERANS AFFAIRS CLAIMS PROCESSING</title>
<body><pre>
[House Hearing, 107 Congress]
[From the U.S. Government Printing Office]


 
            DEPARTMENT OF VETERANS AFFAIRS CLAIMS PROCESSING 

=======================================================================

                                HEARING

                               before the

                        SUBCOMMITTEE ON BENEFITS

                                 of the

                     COMMITTEE ON VETERANS' AFFAIRS

                        HOUSE OF REPRESENTATIVES

                      ONE HUNDRED SEVENTH CONGRESS

                             SECOND SESSION
                               __________

                             APRIL 26, 2002
                      HEARING HELD IN EL PASO, TX

                               __________

       Printed for the use of the Committee on Veterans' Affairs

                           Serial No. 107-28

[TEXT NOT AVAILABLE IN TIFF FORMAT]



</pre></body></html>
