<html>
<title> - RETIREMENT SECURITY FOR AMERICAN WORKERS: EXAMINING PENSION ENFORCEMENT AND ACCOUNTABILITY </title>
<body><pre>
[House Hearing, 107 Congress]
[From the U.S. Government Printing Office]



 
     RETIREMENT SECURITY FOR AMERICAN WORKERS: EXAMINING PENSION 
                    ENFORCEMENT AND ACCOUNTABILITY
=======================================================================

                                HEARING

                               before the

              SUBCOMMITTEE ON EMPLOYER-EMPLOYEE RELATIONS

                                 of the

                COMMITTEE ON EDUCATION AND THE WORKFORCE
                        HOUSE OF REPRESENTATIVES

                      ONE HUNDRED SEVENTH CONGRESS

                             SECOND SESSION

                               __________

           HEARING HELD IN WASHINGTON, DC, SEPTEMBER 10, 2002

                               __________

                           Serial No. 107-76

                               __________

  Printed for the use of the Committee on Education and the Workforce







83-026 
_____________________________________________________________________________
For Sale by the Superintendent of Documents, U.S. Government Printing Office
Internet: bookstore.gpo.gov  Phone: toll free (866) 512-1800; (202) 512-1800  
Fax: (202) 512-2250 Mail: Stop SSOP, Washington, DC 20402-0001

</pre></body></html>
