<html>
<title> - HEARING VI ON THE DEPARTMENT OF VETERANS AFFAIRS INFORMATION TECHNOLOGY PROGRAMS </title>
<body><pre>
[House Hearing, 108 Congress]
[From the U.S. Government Printing Office]


 
                HEARING VI ON THE DEPARTMENT OF VETERANS
                AFFAIRS INFORMATION TECHNOLOGY PROGRAMS
==============================================================================

                                 HEARING

                                before the

                SUBCOMMITTEE OVERSIGHT AND INVESTIGATIONS

                                  of the

                      COMMITTEE ON VETERANS' AFFAIRS

                         HOUSE OF REPRESENTATIVES

                       one hundred eighth congress

                               second session

                                  -------

                                March 17, 2004

                                  -------

          Printed for the use of the Committee on Veterans' Affairs

                              Serial No. 108-32


                                    -----

                       U.S. GOVERNMENT PRINTING OFFICE

98-035pdf                     WASHINGTON : 2005
-----------------------------------------------------------------------------
For the sale by the Superintendent of Documents, U.S. Government Printing Office  Internet: bookstore.gpo.gov  Phone: toll-free (866) 512-1800; DC area (202) 512-1800 Fax: (202) 512-2250  Mail: Stop SSOP, Washington, DC 20402-0001

<TEXT NOT AVAILABLE IN TIFF FORMAT>


</pre></body></html>
