<html>
<title> - SHATTERING THE MYTHS OF THE DRUG</title>
<body><pre>
[House Hearing, 105 Congress]
[From the U.S. Government Printing Office]



 
                 SHATTERING THE MYTHS OF THE DRUG

                   CULTURE--CELEBRITY ROLE MODELS JUST SAY

                    NO
______________________________________________________________


                               HEARING 

                              BEFORE THE

                   SUBCOMMITTEE ON NATIONAL SECURITY,
                   
             INTERNATIONAL AFFAIRS, AND CRIMINAL JUSTICE 

                                OF THE

                         COMMITTEE ON GOVERNMENT

                           REFORM AND OVERSIGHT

                         HOUSE OF REPRESENTATIVES

                        ONE HUNDRED FIFTH CONGRESS

                               SECOND SESSION

                               _____________

                              JUNE 18, 1998

                                ___________

                            Serial No. 105-194


Printed for the use of the Committee on Government Reform and Oversight




                      U.S. GOVERNMENT PRINTING OFFICE

53-031                      WASHINGTON : 1999
_____________________________________________________________________
For sale by the Superintendent of Documents, U.S. Government Printing
Office Internet: bookstore.gpo.gov  Phone: toll free (866) 512-1800
Fax: (202) 512-2250  Mail: Stop SSOP, Washington, DC  20402-0001



[TEXT NOT AVAILABLE]

</pre></body></html>
