<html>
<title> - HHS INSPECTOR GENERAL'S AUDIT OF THE HCFA'S FY 1997 FINANCIAL STATEMENTS </title>
<body><pre>
[House Hearing, 105 Congress]
[From the U.S. Government Printing Office]



 
                  HHS INSPECTOR GENERAL'S AUDIT OF THE
                   HCFA'S FY 1997 FINANCIAL STATEMENTS
===========================================================================

                                 HEARING

                               before the


                  SUBCOMMITTEE ON HEALTH AND ENVIRONMENT

                                   and

                       OVERSIGHT AND INVESTIGATIONS

                                 of the

                           COMMITTEE ON COMMERCE

                                 and the

                  SUBCOMMITTEE ON GOVERNMENT MANAGEMENT,
                       INFORMATION AND TECHNOLOGY

                                 of the

                     COMMITTEE ON GOVERNMENT REFORM
                              AND OVERSIGHT

                        HOUSE OF REPRESENTATIVES

                       ONE HUNDRED FIFTH CONGRESS

                                 -------
                             SECOND SESSION

                                 -------

                             April 24, 1998

                                 -------

                 Committee on Commerce Serial No. 105-727
     Committee on Government Reform and Oversight Serial No. 105-104

         Printed for the use of the Committee on Commerce and the
               Committee on Government Reform and Oversight


                    U.S. GOVERNMENT PRINTING OFFICE
48-388                      WASHINGTON : 1998
____________________________________________________________________________
              For sale by the U.S. Government Printing Office
Superintendent of Documents, Congressional Sales Office, Washington, DC 20402
                            ISBN 0-16-057740-3

<TEXT NOT AVAILABLE>

</pre></body></html>
