<html>
<title> - WILL THE ADMINISTRATION IMPLEMENT THE</title>
<body><pre>
[House Hearing, 105 Congress]
[From the U.S. Government Printing Office]



 
                WILL THE ADMINISTRATION IMPLEMENT THE

                 KYOTO PROTOCOL THROUGH THE BACK DOOR?

                         DISCLOSURES ACT                   ____________________________________________________________


                               HEARING 

                              BEFORE THE

             SUBCOMMITTEE ON NATIONAL ECONOMIC GROWTH,

             NATURAL RESOURCES, AND REGULATORY AFFAIRS

                                OF THE

                       COMMITTEE ON GOVERNMENT

                         REFORM AND OVERSIGHT

                       HOUSE OF REPRESENTATIVES

                       ONE HUNDRED FIFTH CONGRESS

                             SECOND SESSION

                               ____________

                             OCTOBER 9, 1998
                                ___________


                           Serial No. 105-196


Printed for the use of the Committee on Government Reform and
                             Oversight




                      U.S. GOVERNMENT PRINTING OFFICE

54-502                      WASHINGTON : 1999
_____________________________________________________________________
For sale by the Superintendent of Documents, U.S. Government Printing
Office Internet: bookstore.gpo.gov  Phone: toll free (866) 512-1800
Fax: (202) 512-2250  Mail: Stop SSOP, Washington, DC  20402-0001




[TEXT NOT AVAILABLE]

</pre></body></html>
