<html>
<title> - BENEFITS FOR FILIPLINO VETERANS</title>
<body><pre>
[House Hearing, 105 Congress]
[From the U.S. Government Printing Office]


 
                    BENEFITS FOR FILIPLINO VETERANS 

=======================================================================

                            







                                  HEARING
 
                                Before the

                         Committee on Veterans' Affairs

                            House of Representatives

                         ONE HUNDRED FIFTH CONGRESS

                               SECOND SESSION

                                  ------

                               JULY 22, 1998

                                  ------

          Printed for the use of the Committee on Veterans' Affairs

                                
                              Serial No. 105-44

               
                    [GRAPHICS NOT AVAILABLE IN TIFF FORMAT]





                         U.S. GOVERNMENT PRINTING OFFICE 

51-374 PDF                     WASHINGTON : 1998

-----------------------------------------------------------------------

                    For sale by the U.S. Government Printing 
                       Office, Superintendent of Documents, 
                   Congressional Sales Office, Washington, DC 20402


[TEXT NOT AVAILABLE REFER TO PDF]


</pre></body></html>
