<html>
<title> - ENERGY AND WATER DEVELOPMENT APPROPRIATIONS FOR 1998</title>
<body><pre>
[House Hearing, 105 Congress]
[From the U.S. Government Printing Office]


<DOC>
 
                      ENERGY AND WATER DEVELOPMENT
                        APPROPRIATIONS FOR 1998

========================================================================

                                HEARINGS

                                BEFORE A

                           SUBCOMMITTEE OF THE

                       COMMITTEE ON APPROPRIATIONS

                         HOUSE OF REPRESENTATIVES

                       ONE HUNDRED FIFTH CONGRESS
                              FIRST SESSION

                                ________

              SUBCOMMITTEE ON ENERGY AND WATER DEVELOPMENT

                JOSEPH M. McDADE, Pennsylvania, Chairman

HAROLD ROGERS, Kentucky              VIC FAZIO, California
JOE KNOLLENBERG, Michigan            PETER J. VISCLOSKY, Indiana
RODNEY P. FRELINGHUYSEN, New Jersey  CHET EDWARDS, Texas        
MIKE PARKER, Mississippi             ED PASTOR, Arizona         
SONNY CALLAHAN, Alabama              
JAY DICKEY, Arkansas                 


NOTE: Under Committee Rules, Mr. Livingston, as Chairman of the Full 
  Committee, and Mr. Obey, as Ranking Minority Member of the Full 
  Committee, are authorized to sit as Members of all Subcommittees.
  James D. Ogsbury, Bob Schmidt, Jeanne Wilson, and Donald M. McKinnon, 
                            Staff Assistants
  
                              ________

                                PART 2                                  

                         DEPARTMENT OF THE ARMY

                           CORPS OF ENGINEERS

                BUDGET JUSTIFICATIONS AND STATUS REPORTS

                        OF DIVISION ENGINEERS AND

                         DIRECTOR OF CIVIL WORKS


                                ________


         Printed for the use of the Committee on Appropriations

                                ________


                     U.S. GOVERNMENT PRINTING OFFICE

39-582 O                    WASHINGTON : 1997

------------------------------------------------------------------------
             For sale by the U.S. Government Printing Office            
        Superintendent of Documents, Congressional Sales Office,        
                          Washington, DC 20402                          
                           ISBN 0-16-054907-8                           



                       COMMITTEE ON APPROPRIATIONS                      

                   BOB LIVINGSTON, Louisiana, Chairman                  

JOSEPH M. McDADE, Pennsylvania         DAVID R. OBEY, Wisconsin            
C. W. BILL YOUNG, Florida              SIDNEY R. YATES, Illinois           
RALPH REGULA, Ohio                     LOUIS STOKES, Ohio                  
JERRY LEWIS, California                JOHN P. MURTHA, Pennsylvania        
JOHN EDWARD PORTER, Illinois           NORMAN D. DICKS, Washington         
HAROLD ROGERS, Kentucky                MARTIN OLAV SABO, Minnesota         
JOE SKEEN, New Mexico                  JULIAN C. DIXON, California         
FRANK R. WOLF, Virginia                VIC FAZIO, California               
TOM DeLAY, Texas                       W. G. (BILL) HEFNER, North Carolina 
JIM KOLBE, Arizona                     STENY H. HOYER, Maryland            
RON PACKARD, California                ALAN B. MOLLOHAN, West Virginia     
SONNY CALLAHAN, Alabama                MARCY KAPTUR, Ohio                  
JAMES T. WALSH, New York               DAVID E. SKAGGS, Colorado           
CHARLES H. TAYLOR, North Carolina      NANCY PELOSI, California            
DAVID L. HOBSON, Ohio                  PETER J. VISCLOSKY, Indiana         
ERNEST J. ISTOOK, Jr., Oklahoma        THOMAS M. FOGLIETTA, Pennsylvania   
HENRY BONILLA, Texas                   ESTEBAN EDWARD TORRES, California   
JOE KNOLLENBERG, Michigan              NITA M. LOWEY, New York             
DAN MILLER, Florida                    JOSE E. SERRANO, New York           
JAY DICKEY, Arkansas                   ROSA L. DeLAURO, Connecticut        
JACK KINGSTON, Georgia                 JAMES P. MORAN, Virginia            
MIKE PARKER, Mississippi               JOHN W. OLVER, Massachusetts        
RODNEY P. FRELINGHUYSEN, New Jersey    ED PASTOR, Arizona                  
ROGER F. WICKER, Mississippi           CARRIE P. MEEK, Florida             
MICHAEL P. FORBES, New York            DAVID E. PRICE, North Carolina      
GEORGE R. NETHERCUTT, Jr., Washington  CHET EDWARDS, Texas                 
MARK W. NEUMANN, Wisconsin             
RANDY ``DUKE'' CUNNINGHAM, California  
TODD TIAHRT, Kansas                    
ZACH WAMP, Tennessee                   
TOM LATHAM, Iowa                       
ANNE M. NORTHUP, Kentucky              
ROBERT B. ADERHOLT, Alabama            

                 James W. Dyer, Clerk and Staff Director

                                  (ii)



[[Pages 1 - 2128]]

[The official Committee record contains additional material here.]



                               I N D E X

                              ----------                              

                           CORPS OF ENGINEERS

                                                                   Page
LOWER MISSISSIPPI VALLEY DIVISION--Status Report.................  1-25
    Area of Responsibility.......................................     2
    Channel Improvement..........................................    19
    Coastal Wetlands Planning, Protection, and Restoration Act...    25
    Construction, General Program............................. 9-15, 18
    Fiscal Year 1996 Program Performance.........................   2-3
    Fiscal Year 1997 Program Management..........................     3
    Fiscal Year 1998 Program Summary.............................     3
    Flood Control Projects.......................................    16
    Flood Recovery...............................................    25
    General Investigations....................................... 3, 16
    Justification of Estimate for Civil Functions Activities--
      Mississippi River Commission.............................. 26-379
        Construction............................................ 56-209
        Flood Control, Mississippi River and Tributaries....... 224-379
        Operation and Maintenance.............................. 210-223
        Preconstruction, Engineering, and Design................. 45-55
        Summary..................................................    29
        Surveys.................................................. 30-44
    Maintenance..................................................    24
    Mississippi River and Tributaries Program....................    16
    Mississippi River Levees.....................................    18
    Multiple-Purpose Projects....................................    16
    Navigation Projects..........................................    16
    Operation and Maintenance, General........................... 15-25
    Preconstruction, Engineering, and Design.....................   7-9
    Protection of Navigation.....................................    16
    Surveys................................................. 4-7, 17-18
MISSOURI RIVER DIVISION--Status Report......................... 380-459
    Conclusion...................................................   390
    Construction, General........................................   385
        Budget Request for FY 98.................................   385
        Highlights of the FY 96 Program..........................   385
        Highlights of the FY 97 Program..........................   385
    Division Area................................................   380
    Emergency Responses Since FY 97 Testimony....................   390
    Flood Control................................................   386
    Flood Damage Prevention Studies--Continuing..................   381
    FY 98 Budget Request.........................................   380
    Justification of Estimates for Civil Functions Activities.. 391-459
    General Investigations.......................................   380

                                  (i)


                                   ii                                  

        Budget Request for FY 98.................................   381
        Highlights of the FY 96 Program..........................   380
        Highlights of the FY 97 Program..........................   381
    Major Rehabilitation.........................................   387
    Navigation...................................................   385
    Operation and Maintenance, General...........................   388
        Budget Request for FY 98.................................   389
        Highlights of the FY 96 Program..........................   388
        Highlights of the FY 97 Program..........................   388
    Preconstruction, Engineering, and Design (PED)--Continuing...   384
    Review of Completed Projects--Continuing.....................   382
    Review of Completed Projects--New............................   381
NEW ENGLAND DIVISION--Status Report............................ 460-467
    Area of Responsibility.......................................   461
    Construction, General Program................................   465
    Environmental Restoration....................................   462
    Fiscal Year 1998 Program Request.............................   463
    General Investigations.......................................   463
    Justification of Estimates for Civil Functions Activities.. 468-505
    Operation and Maintenance, General...........................   467
    Storm Events.................................................   461
    Summary......................................................   467
NORTH ATLANTIC DIVISION--Status Report......................... 506-514
    Accomplishments..............................................   507
    Conclusion...................................................   514
    Construction, General........................................   510
        Budget Request for Fiscal Year 1998......................   511
        Highlights of Fiscal Year 1996 Program...................   510
        Highlights of Fiscal Year 1997 Program...................   510
    Description of the North Atlantic Division Geographic
      Settings...................................................   506
    Districts....................................................   507
    General Investigations.......................................   508
        Budget Request for Fiscal Year 1998......................   508
        Highlights of Fiscal Year 1996 Program...................   508
        Highlights of the Fiscal Year 1997 Program...............   508
    Introduction.................................................   506
    Justification of Estimates for Civil Functions Activities.. 515-719
    Operation and Maintenance, General...........................   513
        Budget Request for Fiscal Year 1998......................   513
        Highlights of Fiscal Year 1996 Program...................   513
        Highlights of Fiscal Year 1997 Program...................   513
    Overall Budget Request.......................................   507
NORTH CENTRAL DIVISION--Status Report.......................... 720-730
    Area of Responsibility.......................................   720
    Construction, General........................................   724
    Emergency Responses Since FY 1997 Testimony..................   730
    FY 1996 Fiscal Performance...................................   720
    FY 1998 Budget Request.......................................   720
    General Investigations.......................................   721
    Justification of Estimate for Civil Functions Activities... 731-869
    Operation and Maintenance, General...........................   728
NORTH PACIFIC DIVISION--Status Report.......................... 870-878
    Conclusion...................................................   878


                                  iii

    Construction, General........................................   873
    Construction, General, Continuing Authorities................   876
    Cultural Resources...........................................   878
    Description of Division......................................   870
    Electrical System Reliability................................   877
    Expenditure Performance......................................   870
    General Investigations.......................................   871
    Justification of Estimates for Civil Functions Activities.. 879-975
    New Start Study..............................................   871
    Operation and Maintenance, General...........................   876
    Overall Budget Request.......................................   870
    The Budget Request for Construction, General.................   874
    The Winter Flood of 1996-1997................................   878
OHIO RIVER DIVISION--STATUS REPORT............................. 976-997
    Area of Responsibility.......................................   976
    Budget Comparison Fiscal Years 1997-1998................... 976-977
    Construction, General........................................   986
        Budget Request for Fiscal Year 1998......................   987
        Dam Safety Assurance.....................................   992
        Detailed Project Reports.................................   992
        Flood Damage Reduction...................................   990
        Highlights of Fiscal Year 1996-1997......................   986
        Major Rehabilitation.....................................   993
        Multi Purpose Projects...................................   992
        Navigation...............................................   988
        New Starts...............................................   988
    Fiscal Year 1996 Execution...................................   977
    Fiscal Year 1998 Budget Request..............................   977
    General Investigations.......................................   978
        Budget Request for Fiscal Year 1998......................   978
        Comprehensive Studies....................................   982
        Feasibility Studies......................................   978
        Fiscal Year 1998 New Survey Start........................   979
        Flood Damage Reduction Studies........................ 980, 984
        Navigation Studies.......................................   979
        Reconnaissance Studies...................................   978
        Special Studies..........................................   981
    Operation and Maintenance, General...........................   994
        Budget Request for Fiscal Year 1998......................   994
        Cost Reduction Initiatives for the Ohio River Navigation 
          System.................................................   996
        Environmental Stewardship................................   996
        Flood Damage Reduction...................................   995
        Flooding of 1996.........................................   995
        Highlights of Fiscal Years 1996-1997.....................   994
        Hydropower...............................................   995
        Initiatives..............................................   996
        Partnering...............................................   996
        Recreation...............................................   995
        Specific Partnering Activities...........................   997
    Preconstruction, Engineering, and Design.....................   983
        Flood Damage Reduction...................................   984
        Navigation...............................................   983
        Watershed/Ecosystem......................................   983
PACIFIC OCEAN DIVISION--Status Report........................ 1142-1147


                                   iv                                   

    Area of Responsibility.......................................  1142
    Construction, General........................................  1145
    Emergency Response...........................................  1147
    Fiscal Year 1996 and 1997 Activities and Fiscal Year 1998 
      Budget Request.............................................  1143
    General Investigations.......................................  1143
    Operation and Maintenance....................................  1146
    Summary......................................................  1147
SOUTH ATLANTIC DIVISION--Status Report....................... 1171-1178
    Conclusion...................................................  1178
    Construction.................................................  1173
        Continuing...............................................  1174
        Fiscal Year 1996.........................................  1173
        Fiscal Year 1997.........................................  1174
        Fiscal Year 1998.........................................  1174
        New......................................................  1174
    Division Area................................................  1171
    General Investigations.......................................  1171
        Fiscal Year 1996.........................................  1171
        Fiscal Year 1997.........................................  1172
        Fiscal Year 1998.........................................  1172
        Preconstruction, Engineering, and Design, Continuing.....  1173
        Preconstruction, Engineering, and Design, New............  1173
        Surveys, Continuing......................................  1172
        Surveys, New.............................................  1172
    Operation and Maintenance....................................  1176
        Fiscal Year 1996.........................................  1176
        Fiscal Year 1997.........................................  1176
        Fiscal Year 1998.........................................  1177
        Flood Control Projects...................................  1177
        Hurricanes...............................................  1177
        Multiple Purpose Projects................................  1177
        Navigation Projects......................................  1177
        Protection of Navigation.................................  1177
    Overall Budget...............................................  1171
SOUTH PACIFIC DIVISION--Status Report........................ 1425-1430
    1997 California and Nevada Floods............................  1425
    Collocation..................................................  1430
    Conclusion...................................................  1430
    Construction, General........................................  1429
    Fiscal Year 1998 Budget......................................  1428
    FY 1996 Achievements.........................................  1428
    FY 1997 Program..............................................  1428
    General Investigations.......................................  1428
    Introduction.................................................  1425
    Operations and Maintenance...................................  1429
    Regional Overview............................................  1427
SOUTHWESTERN DIVISION--Status Report......................... 1683-1694
    Construction General.........................................  1687
        Continuing Construction..................................  1688
        Fiscal Year 1998 Continuing Construction Program.........  1688
        Fiscal Year 1998 New Construction Program................  1687
        New Construction Starts..................................  1688
        Project Completions......................................  1689


                                    v

    Emergency Management.........................................  1693
    Fiscal Year 1996 Performance.................................  1683
    Fiscal Year 1998 Program.....................................  1683
    Flood Damages Prevented......................................  1693
    General Investigations.......................................  1684
        Completion of Feasibility Studies........................  1685
        Completion of PED Projects...............................  1687
        Completion of Reconnaissance Studies.....................  1685
        Continuation of Full Federal Studies.....................  1585
        Continuation of Partnership Studies......................  1685
        Continuing PED Projects..................................  1687
        Feasibility Studies......................................  1684
        Fiscal Year 1998 Preconstruction, Engineering, and Design 
          (PED)..................................................  1686
        Fiscal Year 1998 Survey Program..........................  1685
        Initiation of PED........................................  1686
        Initiation of Reconnaissance Studies.....................  1685
        Preconstruction, Engineering, and Design.................  1686
        Survey Studies...........................................  1684
    Introduction.................................................  1683
    Operation and Maintenance....................................  1690
        Channels and Harbors.....................................  1690
        Locks and Dams...........................................  1690
        Flood Control............................................  1691
        Multiple Purpose Power Projects..........................  1691
        Protection of Navigation.................................  1692
        Recreation...............................................  1692
    Return of Funds..............................................  1693
    Summary......................................................  1694
Abiquiu Dam Emergency Gates, NM..................................  1839
Acequias Irrigation System, NM...................................  1843
Addison, NY......................................................   579
AIWW--Replacement of Federal Highway Bridges, NC............ 1175, 1259
Alamogordo, NM...................................................  1788
Alamosa, CO......................................................  1774
Alaska Navigation Studies........................................   871
Alaska Project Completions.......................................   873
Alenaio Stream Flood Control, HI.................................  1145
Alexander and Pulaski Counties, IL............................... 4, 33
Aloha-Rigolette, LA............................................ 12, 128
Alpine, TX.......................................................  1705
Alton to Gale Organized Levee Districts, IL and MO............... 9, 56
American River Watershed, CA.......................... 1429, 1503, 1517
Amite River--Darlington Reservoir, LA............................ 5, 34
Anacostia River and Tributaries, MD and DC.................... 528, 592
Anacostia River Federal Facilities Impact Assessment, MD and DC..   555
Anchor Point Harbor, AK..........................................   883
Aniak, AK........................................................   897
Antelope Creek, Lincoln, NE................................... 382, 397
Arecibo River, PR................................................  1214
Arkansas City, KS................................................  1779
Arroyo Pasajero, CA..............................................  1505
Arthur Kill Channel, Howland Hook Marine Terminal, NY and NJ.....   585
Atchafalaya Basin Floodway System, LA..................... 19, 265, 274
Atlantic Coast of Maryland, MD...................................   613


                                   vi

Atlantic Coast of New York City, Rockaway Inlet to Norton Point 
  (Coney Island Area), NY........................................   636
Atlantic Coast of New York, NY...................................   552
Atlantic Intracoastal Waterway Bridge at Great Bridge, VA........   587
Atlantic Intracoastal Waterway Bridge Replacement at Deep Creek, 
  VA.............................................................   518
Atlantic Intracoastal Waterway, SC...............................  1200
Ball Mountain Lake, VT...........................................   501
Baltimore Harbor Anchorages and Channels, MD and VA..............   583
Baltimore Metropolitan Water Resources, MD.......................   530
Barbers Point Harbor, Oahu, HI.............................. 1143, 1151
Barkley Dam and Lake Barkley, KY & TN........................ 992, 1098
Barnegat Bay, NJ.................................................   559
Barre Falls Dam, MA..............................................   497
Bayou Tigre, Erath, LA........................................... 5, 35
Beach City Lake, Muskingum River Lakes, OH.......................  1106
Beach City Lake, OH..............................................   992
Beargrass Creek, KY..............................................  1020
Birch Hill Dam, MA...............................................   498
Biscayne Bay, FL.................................................  1191
Black Bayou Diversion, LA........................................ 5, 36
Black Rock Lake, CT..............................................   496
Black Warrior and Tombigbee Rivers, Vicinity of Jackson, AL......  1237
Blackstone River Watershed Restoration, MA and RI............. 463, 471
Blackwater Dam, NH...............................................   500
Blair Waterway, WA...............................................   894
Blue River Basin, Kansas City, MO............................. 384, 406
Blue River Channel, Kansas City, MO........................... 387, 407
Bolinas Lagoon, CA...............................................  1471
Bonneville Powerhouse (Major Rehab Phase I), OR & WA.......... 873, 874
Bonneville Powerhouse (Phase II), OR & WA (Major Rehab)..........   945
Bonneville Second Powerhouse, OR & WA............................   874
Boston Harbor, MA........................................ 465, 475, 494
Brays Bayou, Houston, TX.........................................  1723
Brigantine Inlet to Great Egg Harbor Inlet, NJ...................   546
Brunswick County Beaches, NC.....................................  1218
Burnswick Harbor, GA........................................ 1189, 1207
Buffumville Lake, MA.............................................   498
Buford Powerhouse, GA....................................... 1174, 1233
Burns Harbor, IN (Major Rehab) Lake Michigan.....................   727
Burns Waterway Harbor, IN (Major Rehab)..........................   823
Cahaba River Watershed, AL.......................................  1195
Canaveral Harbor, FL.............................................  1246
Cape Cod Canal, MA...............................................   494
Cape Fear-Northeast (Cape Fear) River, NC........................  1209
Cape Girardeau-Jackson, MO..................................... 14, 180
Cape May Inlet to Lower Township, NJ.............................   618
Carolina Beach and Vicinity, NC............................. 1175, 1312
Cedar Hammock (Wares Creek), FL..................................  1213
Central and Southern Florida, FL............................ 1175, 1331
Channel Improvement, AR, IL KY, LA, MS, MO, and TN...............   250
Channel to Victoria, TX..........................................  1748
Charles River Natural Valley Storage Area, MA....................   498
Charleston Estuary, SC...........................................  1183
Charleston Harbor (Deepening/Widening), SC.......................  1211
Cheat River Basin Ecosystem Restoration, WV......................  1010


                                   vii

Cheat River Basin, Environmental Restoration, WV.................   981
Chehalis River, WA...............................................   874
Chemung River Basin Environmental Restoration, NY................   563
Chena River Watershed, AK........................................   899
Chesapeake and Delaware Canal, Baltimore Harbor Connecting 
  Channels (Deepening), DE & MD..................................   581
Chesapeake Bay Oyster Recovery, MD...............................   688
Chesterfield, MO................................................. 6, 41
Chicago Shoreline, IL......................................... 724, 762
Chicopit Bay, FL.................................................  1185
Chief Joseph Dam Pool Raise, WA............................... 873, 904
Clear Creek, TX..................................................  1813
Cleveland Harbor, OH.............................................   728
Clifton, AZ......................................................  1546
Coastal Connecticut Ecosystem Restoration..................... 464, 469
Coastal Study Navigation Improvement, AK.........................   884
Colebrook River Lake, CT.........................................   496
Colonias Along U.S.-Mexico Border (Arizona), AZ..................  1468
Columbia River Channel Deepening, OR and WA......................   871
Columbia River Fish Mitigation, WA, OR, & ID.................. 875, 934
Columbia River Navigation Channel Deepening Study, OR & WA.......   893
Columbia River Treaty Fishing Access Sites, OR & WA........... 875, 929
Columbia River Water Management..................................   877
Columbia Slough, OR..............................................   901
Comite River, LA................................................. 8, 52
Conant Brook Lake, MA............................................   498
Conemaugh River Basin, Nanty Glo Ecosystem Restoration, PA.......  1014
Conemaugh River Basin, Nanty Glo Environmental Restoration, PA...   983
Cook Inlet, AK...................................................   912
Cooper River Rediversion, SC.....................................  1174
Cooper River, Charleston Harbor, SC..............................  1225
Coos Bay, OR.....................................................   874
Coralville Lake, IA........................................... 722, 743
Corpus Christi Ship Channel, TX..................................  1701
Corte Madera Creek, CA...........................................  1552
Coyote and Berryesa Creeks, CA...................................  1557
Crookston, MN................................................. 723, 748
Crown Bay Channel, VI............................................  1212
Cypress Creek, Houston, TX.......................................  1725
Cypress Valley Watershed, TX.....................................  1710
Dade County, FL..................................................  1271
Dallas Floodway Extension, Trinity River, TX.....................  1727
Dardanelle Lock and Dam (Powerhouse), AR (Major Rehabilitation)..  1871
Dare County Beaches, NC..........................................  1194
Delaware Bay Coastline, DE and NJ................................   542
Delaware Coast from Cape Henlopen to Fenwick Island, DE..........   544
Delaware Coast Protection, DE....................................   608
Des Plaines River Basin, IL......................................   723
Des Plaines, IL..................................................   744
Devils Lake, ND............................................... 722, 740
Dewey Lake, KY............................................... 992, 1102
Dog River, AL....................................................  1184
Dutch Harbor, AK.................................................   886
Duval County, FL.................................................  1277
Duwamish/Green River, WA.........................................   905


                                   viii

East Baton Rouge Parish, LA...................................... 8, 53
East Brimfield Lake, MA..........................................   498
East Ridge, Hamilton County, TN.............................. 985, 1021
East Rockaway Inlet to Rockaway Inlet and Jamaica Bay, NY........   642
East St. Louis, IL............................................. 11, 123
Edward MacDowell Lake, NH........................................   500
Eight Mile Creek, AR........................................... 20, 283
El Paso, TX......................................................  1818
Elizabeth River Basin Environmental Restoration, Hampton Roads, 
  VA.............................................................   573
Elk Creek Lake, OR............................................ 876, 922
Everglades and South Florida Ecosystem Restoration, FL...... 1174, 1229
Festus and Crystal City, MO...................................... 6, 42
Fire Island to Jones Inlet, NY...................................   647
Fire Island to Montauk Point, NY.................................   652
Flint River Basin, GA............................................  1192
Fort Pierce Harbor, FL...........................................  1186
Fort Wayne Metropolitan Area, IN.................................   725
Fort Wayne, IN...................................................   783
Fort Worth Sumps, 14 & 15, Upper Trinity River Basin, TX.........  1718
Four Rivers Basin, FL............................................  1341
Franklin Falls Dam, NH...........................................   500
Freeport Harbor, TX..............................................  1753
Fry Creeks, Bisby, OK............................................  1804
Galisteo Dam, NM (Dam Safety)....................................  1848
Garrison Dam and Power Plant, ND.................................   387
Garrison Dam and Powerplant, ND (Major Rehab)....................   411
Gila River, North Scottsdale Drainage Area, AZ...................  1443
Gila River, Santa Cruz River Basin, AZ...........................  1445
Graham, TX (Brazos River Basin)..................................  1729
Grand Forks, ND............................................... 738, 746
Grand Forks, ND (Feasibility)....................................   721
Grand Forks, ND (PED)............................................   723
Grays Landing Lock and Dam (Lock and Dam 7), Monongahela River, 
  PA.............................................................  1035
Grays Landing Lock and Dam, Monongahela River, PA................   988
Great Egg Harbor Inlet and Peck Beach, NJ........................   624
Great Miami River, Oxbow Area, OH & IN....................... 979, 1001
Green and Barren Rivers Navigation Disposition Study, KY..... 981, 1007
Green Harbor, MA.................................................   494
Greens Bayou, Houston, TX........................................  1731
Grundy, VA.......................................................   991
Guadalupe River, CA..............................................  1565
Gulf Intracoastal Waterway--Aransas National Wildlife Refuge, TX.  1720
Gulf Intracoastal Waterway--Brazos River to Port O'Connor, TX....  1714
Gulf Intracoastal Waterway--High Island to Brazos River, TX......  1715
Gulf Intracoastal Waterway--Port O'Connor to Corpus Christi Bay, 
  TX.............................................................  1716
Gulf Intracoastal Waterway--Sargent Beach, TX....................  1759
Hancock Brook Lake, CT...........................................   496
Harbor of Refuge, Block Island, RI...............................   495
Hartwell Lake Powerhouse, GA & SC................................  1392
Helena and Vicinity, AR........................................ 20, 233
Hillsboro Inlet, FL..............................................  1201
Hodges Village Dam, MA................................... 466, 480, 499
Holes Creek, West Carrollton, OH............................. 990, 1059
Homme Dam, South Branch Park River, ND (Dam Safety)..............   814
Homme Lake (Dam Safety), ND......................................   726


                                   ix

Honolulu Modifications, Oahu, HI............................ 1144, 1150
Hop Brook Lake, CT...............................................   496
Hopkinton-Everett Lakes, NH......................................   500
Houston-Galveston Navigation Channels, TX........................  1736
Howard Hanson Dam, Additional Storage, WA..................... 910, 914
Howard Hanson (Dam Safety), WA...................................   874
Hudson River Habitat Restoration, NY.............................   522
Humboldt Harbor and Bay, CA......................................  1523
Iao Stream, Maui, HI........................................ 1146, 1162
Ice Harbor (Major Rehab), WA.....................................   877
Imperial County Watershed, CA....................................  1472
Indiana Harbor, IN...............................................   728
Indianapolis, White River (North), IN........................ 984, 1018
Intracoastal Waterway Locks, LA.................................. 4, 31
IWW, Palm Beach County, FL.......................................  1202
Jackson Hole Restoration, WY.................................. 873, 907
Jacksonville Harbor, FL..................................... 1187, 1203
Jamaica Bay, Marine Park and Plumb Beach, NY.....................   553
Jefferson Parish, LA............................................. 5, 37
Jim Woodruff Powerhouse, FL & GA.................................  1388
John Day Powerhouse (Major Rehab), OR & WA.......................   877
Johnstown, PA....................................................  1111
Johnstown, PA (Local Protection Project).........................   993
Kake Harbor, AK............................................... 874, 917
Kanawha River Navigation, WV................................. 979, 1003
Kankakee River Basin, IL.........................................   736
Kankakee River Basin, IL, and IN.................................   721
Kansas Citys, MO and KS....................................... 381, 394
Kaumalapau Harbor, Lanai, HI.....................................  1145
Kawaihae Small Boat Harbor, HI...................................  1145
Kawainui Marsh, Oahu, HI.........................................  1146
Kaweah River, CA.................................................  1506
Kenai River, AK..................................................   887
Kentucky Lock, KY............................................ 983, 1015
Kikiaola Harbor, Kauai, HI.................................. 1144, 1155
Kill Van Kull & Newark Bay, NY and NJ............................   596
Kimmswick, MO....................................................   596
Kissimmee River, FL......................................... 1176, 1378
Knightville Dam, MA..............................................   499
Kuskokwim River, AK..............................................   888
LACDA, Water Conservation and Supply (Hansen and Lopez Dams), CA.  1473
LACDA, Water Conservation and Supply (Santa Fe and Whittier 
  Narrows Dams), CA..............................................  1474
Lackawanna River, Olyphant, PA...................................   672
Lackawanna River, Scranton, PA...................................   677
Lafayette Parish, LA............................................. 5, 38
Lake Ashtabula and Baldhill Dam (Dam Safety), ND.............. 727, 818
Lake Ashtabula and Baldhill Dam, ND (Major Rehab)............. 727, 835
Lake Pontchartrain and Vicinity, LA............................ 12, 134
Lake Washington Ship Canal, WA...................................   911
Larose to Golden Meadow, LA.................................... 12, 143
Las Cruces, El Paso and Vicinity, NM.............................  1743
Levisa and Tug Forks of the Big Sandy River and the Upper 
  Cumberland River, WV, VA, & KY............................. 991, 1084
Lexington, Fayette County, KY................................ 980, 1004


                                    x

Little Calumet River, IN...................................... 725, 788
Littleville Lake, MA.............................................   499
Lock 14, IA (Major Rehab) Mississippi River......................   727
Lock 3, Embankments, MN (Major Rehab) Mississippi River..........   727
Lock and Dam 14, Mississippi River, IA (Major Rehab).............   826
Lock and Dam 24, Mississippi River, IL and MO (Major 
  Rehabilitation)................................................   202
Lock and Dam 25, Mississippi River, IL and MO (Major 
  Rehabilitation)................................................   206
Lock and Dam 3, Mississippi River, MN (Major Rehab)..............   831
Locks and Dams 2, 3, and 4, Monongahela River, PA............ 989, 1039
London Locks and Dam, WV..................................... 984, 1016
Los Angeles County Drainage Area, CA.............................  1571
Los Angeles Harbor, CA...........................................  1528
Loves Park, IL................................................ 725, 772
Lower Cape May Meadows--Cape May Point, NJ.......................   548
Lower Las Vegas Wash Wetlands, NV................................  1493
Lower Platte River and Tributaries, NE........................ 382, 398
Lower River Des Peres, MO........................................ 7, 44
Lower Sacramento Area Levee Reconstruction, CA...................  1576
Lower Savannah River, GA.........................................  1208
Lower Snake River Fish and Wildlife Compensation, ID, OR, WA.. 876, 940
Lower Truckee River Pyramid Lake Paiute Tribe, NV........... 1494, 1514
Lower Truckee River Washoe County, NV....................... 1495, 1515
Lower West Branch Susquehanna River Basin Environmental 
  Restoration, PA................................................   569
Maalaea Small Boat Harbor, HI............................... 1145, 1157
Manatee County, FL...............................................  1282
Manatee Harbor, FL...............................................  1250
Mansfield Hollow Lake, CT........................................   497
Marin County Shoreline, San Clemente Creek, CA...................  1466
Marina del Rey and Ballona Creek, CA.............................  1437
Marmet Locks and Dam, WV..................................... 984, 1017
Marshall, MN.................................................. 726, 799
Martin County, FL................................................  1287
Marysville/Yuba City Levee Reconstruction, CA............... 1429, 1582
Matewan, WV......................................................   991
Maui Second Harbor, Maui, HI.....................................  1144
Maumee River, OH.................................................   735
May Branch, Fort Smith, AR.......................................  1703
McAlpine Locks and Dam, KY & IN.............................. 988, 1031
McClellan-Kerr Arkansas River Navigation System, Locks and Dams, 
  AR & OK........................................................  1763
McCook and Thornton Reservoirs, IL............................ 725, 777
McGrath Creek, Wichita Falls, TX.................................  1823
McKinney Bayou, AR and TX........................................ 8, 50
Melvin Price Lock and Dam, IL and MO............................ 11, 90
Memphis Metropolitan Area, TN....................................   227
Memphis Metropolitan Area, TN and MS.............................    17
Meramec River Basin, Valley Park Levee, MO..................... 14, 186
Merced County Streams, CA........................................  1588
Metro Atlanta Watershed, GA......................................  1197
Metro Center Levee, Davidson County, TN...................... 985, 1022
Metropolitan Louisville, Beargrass Creek, KY.....................   984
Metropolitan Louisville, Mill Creek Basin, KY................ 980, 1005
Metropolitan Louisville, Pond Creek, KY...................... 990, 1054
Metropolitan Louisville, Southwest, KY....................... 980, 1006


                                   xi

Metropolitan Region of Cincinnati, Duck Creek, OH............ 990, 1064
Miami Harbor Channel, FL.........................................  1255
Miami Harbor, FL.................................................  1174
Middle Rio Grande Flood Protection, Bernalillo to Belen, NM......  1793
Mid-Valley Area Levee Reconstruction, CA.........................  1596
Mill Creek, OH............................................... 990, 1069
Milton, PA.......................................................   538
Mingo Creek, Tulsa, OK...........................................  1808
Mississippi and Louisiana Estuarine Areas, MS and LA........... 22, 320
Mississippi Delta Region, LA................................... 21, 312
Mississippi River--Gulf Outlet, LA Emergency Dredging............    25
Mississippi River at Quincy, IL............................... 721, 737
Mississippi River between Missouri River and Minneapolis, MN, 
  Locks and Dams Nos. 3, 5A, 6, 7, 8, and 9, MN, WI, IA (Major 
  Rehab).........................................................   866
Mississippi River Between the Ohio and Missouri Rivers 
  (Regulating Works), MO and IL..................................10, 84
Mississippi River Levees, AR, IL, KY, LA, MS, MO, and TN.........   238
Mississippi River Ship Channel Improvements, LA.................. 4, 32
Mississippi River Ship Channel, Gulf to Baton Rouge, LA..........10, 72
Mississippi River-Gulf Outlet, LA................................10, 61
Mississippi River, Lock and Dam 24, IL and MO....................    15
Mississippi River, Lock and Dam 25, IL and MO....................    15
Missouri National Recreational River, NE and SD............... 387, 415
Missouri River Fish and Wildlife Mitigation, IA, NE, KS, and
  MO.......................................................... 385, 420
Missouri River Levee System Units L455 and R460-471, MO and KS.384, 403
Missouri River Levee System, IA, NE, KS, and MO............... 386, 424
Mojave River Forks Dam, CA.......................................  1475
Molly Ann's Brook, Halendon, Prospect Park and Paterson, NJ......   658
Montgomery Point Lock and Dam, AR................................  1769
Morganza, LA, to the Gulf of Mexico, LA........................ 17, 225
Muscatine Island, IA.......................................... 726, 794
Myrtle Beach, SC............................................ 1175, 1325
Nansemond River Basin, Suffolk, VA...............................   577
Napa River, CA...................................................  1507
Napa River, Salt Marsh Restoration, CA...........................  1476
Nassau County, FL................................................  1217
Neches River and Tributaries, Saltwater Barrier, TX..............  1721
New Bedford, Fairhaven & Acushnet Hurricane Barrier, MA..........   503
New Jersey Intracoastal Waterway, Environmental Restoration, NJ..   561
New Orleans to Venice, LA...................................... 12, 149
New York and New Jersey Harbor, NY and NJ........................   526
Newport Bay Harbor, CA...........................................  1477
Nome Harbor, AK..................................................   889
Nonconnah Creek, TN and MS..................................... 23, 359
Norfolk Harbor and Channels (Deepening), VA......................   601
North Branch Potomac River Environmental Restoration, WV, MD, and 
  PA.............................................................   540
North Hartland Lake, VT..........................................   501
North Las Vegas, Channel ``A'', NV...............................  1462
North Springfield, VT............................................   501
Northern California Streams, Cache Creek Environmental 
  Restoration, CA................................................  1478
Northern California Streams, Colusa Basin, CA....................  1479
Northern California Streams, Dry Creek (Middletown), CA..........  1447
Northern California Streams, Fairfield Streams and Cordelia 
  Marsh, CA......................................................  1481
Northern California Streams, Lower Sacramento River Riparian 
  Revegetation, CA...............................................  1482


                                   xii

Northern California Streams, Middle Creek, CA....................  1483
Northern California Streams, Sacramento River Watershed 
  Management Plan, CA............................................  1484
Northern California Streams, Vacaville, Dixon and Vicinity, CA...  1448
Northern California Streams, Yuba River Basin, CA................  1449
Northfield Brook Lake, CT........................................   497
Northwest El Paso, TX............................................  1706
Nutwood Drainage and Levee District, IL.......................... 8, 51
Oakland Harbor, CA.......................................... 1429, 1534
Ocean City and Vicinity Water Resources, MD......................   520
Ohio River Mainstem Systems Study, KY, IL, & IN..................   979
Ohio River Mainstem Systems Study, PA, WV, OH, KY, IL, & IN......  1002
Olmsted Locks and Dam, IL & KY............................... 988, 1027
Onondaga Lake, NY............................................. 722, 741
Orleans Parish, LA............................................... 6, 39
Otter Brook Lake, NH.............................................   501
Pajaro River at Watsonville, CA..................................  1509
Palm Beach County, FL............................................  1293
Passaic River Preservation of Natural Storage Areas, NJ..........   662
Patchogue River, CT..............................................   494
Patuxent River Water Resources, VA...............................   532
Pearl River Watershed, MS........................................ 9, 54
Pecan Bayou, Brownwood, TX.......................................  1707
Perry Creek, IA............................................... 386, 438
Pillar Point Harbor (Deepening), CA..............................  1438
Pine River Dam, Cross Lake, MN (Dam Safety)................... 724, 759
Pinellas County, FL..............................................  1299
Plainview, Brazos River Basin, TX................................  1712
Ponce de Leon Inlet, FL..........................................  1204
Poplar Island, MD................................................   692
Port Everglades Harbor, FL.......................................  1188
Port Fourchon, LA................................................ 7, 47
Port Hueneme, CA............................................ 1439, 1499
Port of Long Beach, CA...........................................  1501
Portage, WI................................................... 726, 810
Portugues and Bucana Rivers, PR............................. 1175, 1347
Prado Basin Water Supply, CA.....................................  1485
Presque Isle Peninsula, PA.................................... 725, 767
Provo and Vicinity, UT...........................................  1465
Puget Sound Confined Disposal Site(s), WA........................   895
Puget Sound Studies, WA..........................................   872
Ramapo River at Oakland, NJ......................................   667
Rancho Palos Verdes, CA..........................................  1450
Raritan Bay and Sandy Hook Bay, NJ...............................   550
Raymondville Drain, TX...........................................  1733
Red River Waterway, Mississippi River to Shreveport, LA..........11, 96
Reelfoot Lake, TN and KY....................................... 17, 228
Rend Lake, IL....................................................    15
Rend Lake, IL (Deficiency Correction)............................   197
Rhode Island South Coast Habitat Restoration and Storm Damage 
  Reduction......................................................   473
Rhode Island South Coastal Study.................................   463
Richard B. Russell Dam and Lake, GA & SC.................... 1176, 1371
Richmond Harbor, CA..............................................  1540
Rio de Flag, AZ..................................................  1446
Rio de la Plata, PR..............................................  1355


                                   xiii

Rio Grande Ecosystem Restoration, CO & NM........................  1699
Rio Grande Floodway, San Acacia to Bosque del Apache, NM.........  1799
Rio Guanajibo, PR................................................  1215
Rio Nigua at Salinas, PR.........................................  1216
Rio Puerto Nuevo, PR........................................ 1176, 1360
Rio Salado, Salt River, AZ.......................................  1469
Roanoke River Upper Basin, Headwaters Area, VA...................  1365
Robert C. Byrd Locks and Dam, WV & OH........................ 989, 1044
Roughans Point, Revere, MA.................................... 465, 484
Russian River, Ecosystem Restoration, CA.........................  1486
Sacramento--San Joaquin Delta, CA................................  1487
Sacramento--San Joaquin Delta, Western Delta Islands, CA.........  1488
Sacramento River Bank Protection Project, CA.....................  1604
Sacramento River Flood Control Project (Glenn-Colusa Irrigation 
  District), CA..................................................  1618
Salina, KS.................................................... 383, 400
San Antonio Channel Improvement, TX..............................  1828
San Antonio Creek, CA............................................  1451
San Diego Harbor, CA.............................................  1440
San Francisco Bay Bar Channel, CA................................  1441
San Joaquin River Basin, Arroyo Pasajero (Fresno County), CA.....  1452
San Joaquin River Basin, Pine Flat Dam Fish and Wildlife Habitat 
  Restoration, CA................................................  1490
San Joaquin River Basin, South Sacramento County Streams, CA.....  1453
San Joaquin River Basin, Stockton Metropolitan Area, CA..........  1454
San Joaquin River Basin, Tule River, CA..........................  1456
San Joaquin River Basin, West Stanislaus County, CA..............  1457
San Juan and Aliso Creeks Watershed Management, CA...............  1491
San Juan Harbor, PR......................................... 1175, 1266
San Lorenzo River, CA............................................  1623
San Luis Rey River, CA...........................................  1628
Sand Point Harbor, AK............................................   890
Sand Point, AK...................................................   914
Sandy Hook to Barnegat Inlet, NJ.................................   630
Santa Ana River Mainstem, CA................................ 1429, 1633
Santa Barbara County Streams, Lower Mission Creek, CA............  1458
Santa Margarita River and Tributaries, CA........................  1459
Santa Paula Creek, CA............................................  1642
Santee, Cooper, and Congaree Rivers, SC..........................  1198
Sarasota County, FL..............................................  1307
Savannah Harbor Expansion, GA....................................  1190
Savannah/Chatham County, GA......................................  1193
Saw Mill Run, Pittsburgh, PA................................. 991, 1079
Saw Mill Run, Pittsburgh, PA.....................................  1079
Seward Harbor, AK................................................   890
Sheyenne River, ND............................................ 726, 804
Sims Bayou, Houston, TX..........................................  1833
Sitka Cruise Ship Passenger Transfer Facility, AK................   891
Skagit River, WA.................................................   898
Smith Island Environmental Restoration and Protection, MD........   557
South Main Channel, TX...........................................  1734
South River, Raritan LRiver Basin, NJ............................   534
South Sacramento County Streams, CA..............................  1510
South Shore of Long Island, NY...................................   524
Southeast Louisiana, LA........................................ 13, 158


                                   xiv

Stamford Hurricane Barrier, CT...................................   503
Ste. Genevieve, MO............................................. 14, 191
Stillaguamish River, WA..........................................   906
St. Francis Basin, AR and MO................................... 20, 288
St. John's Bayou--New Madrid Floodway, MO........................    23
St. Johns Bayou, MO..............................................   353
St. Louis Flood Protection, MO................................... 4, 30
St. Louis Harbor, MO and IL...................................... 7, 48
St. Lucie Inlet, FL..............................................  1205
St. Paul Harbor, AK..............................................   913
Surry Mountain Lake, NH..........................................   501
Susquehanna River Basin Water Management, NY, PA, and MD.........   536
Swope Park Industrial Area, Kansas City, MO................... 382, 396
Table Rock Lake, MO & AR (Dam Safety)............................  1862
Tahoe Basin, California and Nevada, CA & NV......................  1492
Tampa Harbor, Big Bend Channel, FL...............................  1206
Tenkiller Ferry Lake, OK (Dam Safety)............................  1867
Tennessee-Tombigbee Waterway Wildlife Mitigation, AL & MS........  1241
Tensas Basin, AR and LA........................................ 21, 297
The Dalles Powerhouse (Major Rehab), WA & OR.................. 876, 949
Thomaston Dam, CT................................................   497
Thurmond Lake Powerhouse, GA & SC................................  1396
Tioga River Watershed, PA and NY.................................   571
Toledo Harbor, Maumee River, OH..................................   721
Toledo Harbor, OH................................................   729
Topeka, KS.................................................... 383, 401
Town Brook, Quincy and Braintree, MA.......................... 465, 489
Townshend Lake, VT...............................................   502
Tres Rios, AZ....................................................  1470
Tropicana and Flamingo Washes, NV........................... 1429, 1658
Truckee Meadows, NV..............................................  1463
Tucson Drainage Area, AZ.........................................  1502
Tully Lake, MA...................................................   499
Turkey Creek Basin, KS and MO....................... 381, 384, 395, 405
Two Rivers Dam, NM (Dam Safety)..................................  1852
Tygart Lake, WV.............................................. 988, 1023
Tygart Valley River Basin, Grassy Run Environmental Restoration, 
  WV......................................................... 982, 1011
Tygart Valley River Basin, Three Watershed Ecosystem Restoration, 
  WV.............................................................  1012
Tygart Valley River Basin, Three Watershed Environmental 
  Restoration, WV................................................   982
Union Village Dam, VT............................................   502
Upper Delaware River Watershed, NY...............................   565
Upper Guadalupe River, CA........................................  1511
Upper Jordan River Restoration, UT...............................  1498
Upper Jordan River, UT...........................................  1665
Upper Mississippi and Illinois Navigation Study..................   723
Upper Mississippi River System Environmental Management
  Program..................................................... 724, 750
Upper Mississippi River System Flood Profile Study, IL, IA, MO, 
  WI, & MN.......................................................   730
Upper Mississippi River System Profile Study.....................   722
Upper Mississippi & Illinois Navigation Study, IL, IA, MO, WI, & 
  MN.............................................................   742
Upper Penitencia Creek, CA.......................................  1460
Upper Sacramento Area Levee Reconstruction, CA...................  1647
Upper Susquehanna River Basin Environmental Restoration, NY and 
  PA.............................................................   567
Upper Trinity River Basin, TX....................................  1708


                                   xv

Ventura Harbor Sand Bypass, CA...................................  1442
Village Creek, Jefferson County (Birmingham Watersheds), AL......  1196
Wabash River Basin, Comprehensive (Middle Reaches), IN & IL.. 982, 1013
Waco Lake, TX (Dam Safety).......................................  1857
Wailupe Stream Flood Control Study, Oaha, HI................ 1143, 1153
Walker River Basin, NV...........................................  1496
Walla Walla River Watershed, OR & WA.......................... 873, 902
Walter F. George Powerhouse, AL & GA.............................  1384
West Bank--East of Harvey Canal, LA............................ 13, 166
West Columbus, OH............................................ 991, 1074
West Hill Dam, MA................................................   499
West Sacramento, CA..............................................  1653
West Shore-Lake Pontchartrain, LA................................ 6, 40
West Tennessee Tributaries, TN................................. 23, 366
West Thompson Lake, CT...........................................   497
Westville Lake, MA...............................................   500
Westwego to Harvey Canal, LA................................... 13, 172
Whiteman's Creek, AR........................................... 21, 307
Whitewater River Basin, CA.......................................  1461
Willamette River Basin Review Study, OR....................... 872, 909
Willamette River Flood Plain Restoration, OR.................. 871, 882
Willamette River Salmon Restoration Studies, OR..................   872
Willamette River Temperature Control, OR...................... 872, 915
Wilmington Harbor, Channel Widening, NC..................... 1174, 1219
Wilmington Harbor, Northeast Cape Fear River, NC.................  1210
Wilson Lake, KS............................................... 383, 401
Winfield Locks and Dam, Kanawha River, WV........................   989
Winfield Locks and Dam, WV.......................................  1049
Winfield, KS.....................................................  1784
Wolf River, Memphis, TN..........................................    17
Wolf River, TN...................................................   229
Wood River Drainage and Levee District, Madison County, IL....... 7, 45
Wood River, Grand Island, NE.................................. 387, 443
Wrangell Harbor, AK..............................................   892
Wrightsville Beach, NC...........................................  1320
Wyoming Valley, PA (Levee Raising)...............................   682
Yadlin/Pee Dee River Basins, SC..................................  1199
Yazoo Basin, MS................................................ 22, 326
Youghiogheny Lake Storage Reallocation, PA & MD..................  1009
Youghiogheny River Lake Storage Reallocation, PA & MD............   981
Yuba River Basin, CA.............................................  1512

                                 <all>

</pre></body></html>
